"VertexLitGeneric"
{
	"$basetexture" "models/PrawnModels/Pokemon/Greninja/V2/Body_3"
	"$bumpmap" "models/PrawnModels/Pokemon/Greninja/V2/normal"
	"$nocull" 1
	"$halflambert" "1"
	"$alphatest" "1"

	"$phong" "1"
	"$phongexponent" "2"
	"$phongboost" "0.5"
	"$phongfresnelranges"	"[.1 1 10]"
                
	"$rimlight" "1"												// To enable rim lighting (requires phong)
	"$rimlightexponent" "2"										// Exponent for phong component of rim lighting	
}
