[17:14:41] New map: gm_construct
[17:14:49] Client "GreenBlack" connected (24.7.129.59:27005).
[17:14:58] Client "GreenBlack" spawned in server (24.7.129.59:27005)<STEAM_0:0:59872576>.
[17:15:14] Server is shutting down/changing levels.



[17:15:18] New map: cs_office
[17:15:28] Client "GreenBlack" spawned in server (24.7.129.59:27005)<STEAM_0:0:59872576>.
[17:16:42] Client "Mustard_Nut" connected (173.67.167.249:27005).
[17:17:47] GreenBlack<STEAM_0:0:59872576> spawned model models/props_c17/furniturewashingmachine001a.mdl
[17:17:57] Client "Bot01" connected (none).
[17:17:57] Client "Bot01" spawned in server (BOT)<BOT>.
[17:17:57] Client "Bot02" connected (none).
[17:17:57] Client "Bot02" spawned in server (BOT)<BOT>.
[17:17:58] Client "Bot03" connected (none).
[17:17:58] Client "Bot03" spawned in server (BOT)<BOT>.



[17:20:21] New map: cs_office
[17:20:27] Client "GreenBlack" spawned in server (24.7.129.59:27005)<STEAM_0:0:59872576>.
[17:20:42] Client "Bot01" connected (none).
[17:20:42] Client "Bot01" spawned in server (BOT)<BOT>.
[17:20:43] Client "Bot02" connected (none).
[17:20:43] Client "Bot02" spawned in server (BOT)<BOT>.
[17:20:44] Client "Bot03" connected (none).
[17:20:44] Client "Bot03" spawned in server (BOT)<BOT>.
[17:20:59] GreenBlack suicided!
[17:23:16] Client "darthman" connected (70.230.145.239:27005).
[17:25:01] Dropped "GreenBlack" from server<STEAM_0:0:59872576>
[17:28:44] Client "darthman" spawned in server (70.230.145.239:27005)<STEAM_0:0:55788481>.
[17:29:19] Dropped "darthman" from server<STEAM_0:0:55788481>
[17:29:19] Dropped "Bot01" from server<BOT>
[17:29:19] Dropped "Bot02" from server<BOT>
[17:29:19] Dropped "Bot03" from server<BOT>
[17:32:02] Client "LaserMantis" connected (98.186.79.135:27005).
[17:32:24] Client "1337Youtuber" connected (67.161.169.169:27005).



[20:55:57] New map: cs_office
[20:56:08] Client "GreenBlack" spawned in server (192.168.1.89:27005)<STEAM_0:0:59872576>.
[20:56:08] (Console) added GreenBlack to group superadmin
[21:06:44] Dropped "GreenBlack" from server<STEAM_0:0:59872576>
[21:06:45] Client "GreenBlack" connected (192.168.1.89:27005).
[21:06:50] Client "GreenBlack" spawned in server (192.168.1.89:27005)<STEAM_0:0:59872576>.
[21:17:24] Server is shutting down/changing levels.



[21:18:28] New map: cs_office
[21:18:36] Client "GreenBlack" spawned in server (192.168.1.89:27005)<STEAM_0:0:59872576>.
[21:18:52] Client "Bot01" connected (none).
[21:18:52] Client "Bot01" spawned in server (BOT)<BOT>.
[21:18:52] Client "Bot02" connected (none).
[21:18:52] Client "Bot02" spawned in server (BOT)<BOT>.
[21:20:20] (TEAM) GreenBlack: !donate
[21:20:55] GreenBlack suicided!
[21:21:43] Dropped "GreenBlack" from server<STEAM_0:0:59872576>
[21:21:43] Dropped "Bot01" from server<BOT>
[21:21:43] Dropped "Bot02" from server<BOT>
<Logging continued in "ulx_logs/07-31-13.txt">
