"VertexlitGeneric"
{
	"$basetexture" "models/code_gs/vendetta/v_sheet"
	"$bumpmap" "models/code_gs/vendetta/v_sheet_normal"
	"$phong" "1"
	"$phongexponent" 100
	"$phongboost"	"5"
	"$phongfresnelranges"	"[0.05 0.5 1]"

	// Rim lighting parameters
	"$rimlight" "1"												// To enable rim lighting (requires phong)
	"$rimlightexponent" "300"										// Exponent for phong component of rim lighting	
	"$rimlightboost" "0.25"
}
